^D:\USERS\KAROL\SOURCE\REPOS\BSIUI2_4\BSIUI2_4\DEBUG\BSIUI2_4.OBJ|D:\USERS\KAROL\SOURCE\REPOS\BSIUI2_4\BSIUI2_4\DEBUG\PCH.OBJ
D:\USERS\KAROL\SOURCE\REPOS\BSIUI2_4\DEBUG\BSIUI2_4.EXE
D:\USERS\KAROL\SOURCE\REPOS\BSIUI2_4\DEBUG\BSIUI2_4.ILK
D:\USERS\KAROL\SOURCE\REPOS\BSIUI2_4\DEBUG\BSIUI2_4.PDB
